<?xml version="1.0" encoding="utf-8"?>
<!-- Generator: Adobe Illustrator 23.0.0, SVG Export Plug-In . SVG Version: 6.00 Build 0)  -->
<svg version="1.1" id="Layer_1" xmlns="http://www.w3.org/2000/svg" xmlns:xlink="http://www.w3.org/1999/xlink" x="0px" y="0px"
	 viewBox="0 0 10 10" style="enable-background:new 0 0 10 10;" xml:space="preserve">
<style type="text/css">
	.st0{fill:#DC2B3A;}
</style>
<path class="st0" d="M0.2,6.8C0.1,6.9,0,7,0,7.1c0,0.1,0.1,0.3,0.2,0.4l0.3,0.3C0.7,8,1,8,1.3,7.8L5,4.2l3.7,3.7C8.8,7.9,9,8,9.1,8
	s0.3-0.1,0.4-0.2l0.3-0.3C9.9,7.4,10,7.3,10,7.1C10,7,9.9,6.9,9.8,6.8L5.4,2.4C5.3,2.3,5.1,2.3,5,2.3S4.7,2.3,4.6,2.4L0.2,6.8z"/>
</svg>
